…
``` cmd
cd <path-to-vitalrecorder-folder>/utilities
vital_s3.exe <input.vital> <output-folder>
```

Then from R:

``` r
vital_data <- read_vital(<output-folder>, tz = 'UTC')
```

``` r
> vital_data$Intellivue$ABP
# A tibble: 4,455 x 2
   time                  ABP
   <dttm>              <dbl>
 1 2019-07-11 11:54:25  79.8
 2 2019-07-11 11:54:25  79.1
 3 2019-07-11 11:54:25  78.5
 4 2019-07-11 11:54:25  78  
 5 2019-07-11 11:54:25  77.5
 6 2019-07-11 11:54:25  77.1
 7 2019-07-11 11:54:25  76.6
 8 2019-07-11 11:54:25  76.2
 9 2019-07-11 11:54:25  75.8
10 2019-07-11 11:54:25  75.4
# … with 4,445 more rows
```
…
